<?xml version="1.0" encoding="iso-8859-1"?>
<!-- Generator: Adobe Illustrator 19.0.0, SVG Export Plug-In . SVG Version: 6.00 Build 0)  -->
<svg version="1.1" id="Capa_1" xmlns="http://www.w3.org/2000/svg" xmlns:xlink="http://www.w3.org/1999/xlink" x="0px" y="0px"
	 viewBox="0 0 512 512" style="enable-background:new 0 0 512 512;" xml:space="preserve">
<path style="fill:#FF3636;" d="M337.301,120l-18.6,30H203.5l-28.801-30L201.7,38.099C209.801,15.3,231.7,0,256,0
	s46.199,15.3,54.3,38.099L337.301,120z"/>
<path style="fill:#F40000;" d="M318.701,150H256V0c24.3,0,46.199,15.3,54.3,38.099L337.301,120L318.701,150z"/>
<path style="fill:#FF3636;" d="M448.299,475.699c-2.999,3.9-7.5,6.301-12.299,6.301H76c-4.799,0-9.3-2.401-12.299-6.301
	c-2.701-3.9-3.602-9.3-1.8-13.801L124.9,272l28.801-30h210l23.399,30l62.999,189.899C451.901,466.399,451,471.799,448.299,475.699z"
	/>
<path style="fill:#F40000;" d="M448.299,475.699c-2.999,3.9-7.5,6.301-12.299,6.301H256V242h107.701l23.399,30l62.999,189.899
	C451.901,466.399,451,471.799,448.299,475.699z"/>
<polygon style="fill:#E7E7E7;" points="387.1,272 124.9,272 174.699,120 337.301,120 "/>
<polygon style="fill:#D3D3D8;" points="387.1,272 256,272 256,120 337.301,120 "/>
<path style="fill:#F40000;" d="M481,482c0,16.5-13.5,30-30,30H61c-16.5,0-30-13.5-30-30s13.5-30,30-30h390
	C467.5,452,481,465.5,481,482z"/>
<path style="fill:#E10000;" d="M481,482c0,16.5-13.5,30-30,30H256v-60h195C467.5,452,481,465.5,481,482z"/>
<g>
</g>
<g>
</g>
<g>
</g>
<g>
</g>
<g>
</g>
<g>
</g>
<g>
</g>
<g>
</g>
<g>
</g>
<g>
</g>
<g>
</g>
<g>
</g>
<g>
</g>
<g>
</g>
<g>
</g>
</svg>
